{
  "priority": 1000000000000,
  "populate": {
    "diamond_stone": {
      "distribution": "uniform",
      "generator": {
        "type": "sparse-cluster",
        "block": [
          {
            "name": "minecraft:diamond_ore",
            "weight": 24
          },
          {
            "name": "densemetals:dense_diamond_ore",
            "weight": 1
          },
          {
            "name": "minecraft:lit_redstone_ore",
            "weight": 25
          },
          {
            "name": "orecore:compressed_sapphire_ore",
            "weight": 25
          },
          {
            "name": "orecore:compressed_ruby_ore",
            "weight": 25
          }
        ],
        "material": "minecraft:stone",
        "cluster-size": 15
      },
      "chunk-chance": 122,
      "cluster-count": 1,
      "min-height": 25,
      "max-height": 50,
      "retrogen": "true",
      "biome": null,
      "dimension": "0"
    },
    "diamondAndesite": {
      "distribution": "uniform",
      "generator": {
        "type": "cluster",
        "block": [
          {
            "name": "osv:diamond_ore_5",
            "weight": 15
          },
          {
            "name": "osv:diamond_ore_5",
            "properties": {
              "dense": "true"
            },
            "weight": 1
          },
          {
            "name": "minecraft:stone",
            "properties": {
              "variant": "andesite"
            },
            "weight": 86
          }
        ],
        "cluster-size": 5
      },
      "material": {
        "name": "minecraft:stone",
        "properties": {
          "variant": "andesite"
        }
      },
      "cluster-count": 2,
      "chunk-chance": 73,
      "min-height": 16,
      "max-height": 96,
      "retrogen": "true",
      "biomes": null,
      "dimensionRestriction": "whitelist",
      "dimensions": "0"
    },
    "diamondGranite": {
      "distribution": "uniform",
      "generator": {
        "type": "cluster",
        "block": [
          {
            "name": "osv:diamond_ore_1",
            "weight": 19
          },
          {
            "name": "osv:diamond_ore_1",
            "properties": {
              "dense": "true"
            },
            "weight": 1
          },
          {
            "name": "minecraft:stone",
            "properties": {
              "variant": "granite"
            },
            "weight": 80
          }
        ],
        "cluster-size": 8
      },
      "material": {
        "name": "minecraft:stone",
        "properties": {
          "variant": "granite"
        }
      },
        "cluster-count": 1,
      "chunk-chance": 73,
      "min-height": 16,
      "max-height": 96,
      "retrogen": "true",
      "biomes": null,
      "dimensionRestriction": "whitelist",
      "dimensions": "0"
    },
    "diamondDiorite": {
      "distribution": "uniform",
      "generator": {
        "type": "cluster",
        "block": [
          {
            "name": "osv:diamond_ore_3",
            "weight": 9
          },
          {
            "name": "osv:diamond_ore_3",
            "properties": {
              "dense": "true"
            },
            "weight": 1
          },
          {
            "name": "minecraft:stone",
            "properties": {
              "variant": "diorite"
            },
            "weight": 90
          }
        ],
        "cluster-size": 12
      },
      "material": {
        "name": "minecraft:stone",
        "properties": {
          "variant": "diorite"
        }
      },
      "cluster-count": 1,
      "chunk-chance": 73,
      "min-height": 16,
      "max-height": 96,
      "retrogen": "true",
      "biomes": null,
      "dimensionRestriction": "whitelist",
      "dimensions": "0"
    }
  }
}
